{
    "page": 1,
    "total_results": 69,
    "total_pages": 4,
    "results": [
        {
            "popularity": 15.476,
            "vote_count": 1165,
            "video": false,
            "poster_path": "/tShFBX2eudzkCZw5EnB2ZqLaPSQ.jpg",
            "id": 19265,
            "adult": false,
            "backdrop_path": "/mqnaqKWReftxED6LPGLTDmMjWCY.jpg",
            "original_language": "en",
            "original_title": "Whatever Works",
            "genre_ids": [
                35,
                10749
            ],
            "title": "Whatever Works",
            "vote_average": 7.1,
            "overview": "Whatever Works explores the relationship between a crotchety misanthrope, Boris and a naïve, impressionable young runaway from the south, Melody. When Melody's uptight parents arrive in New York to rescue her, they are quickly drawn into wildly unexpected romantic entanglements. Everyone discovers that finding love is just a combination of lucky chance and appreciating the value of \"whatever works.\"",
            "release_date": "2009-06-19"
        },
        {
            "popularity": 12.886,
            "vote_count": 159,
            "video": false,
            "poster_path": "/ao4RoGXC9woWc7hrRtDRRyDbCJl.jpg",
            "id": 16222,
            "adult": false,
            "backdrop_path": "/wj1osrEGCbwNO9Dv0auvVDZbN8y.jpg",
            "original_language": "en",
            "original_title": "Whatever It Takes",
            "genre_ids": [
                35,
                18,
                10749
            ],
            "title": "Whatever It Takes",
            "vote_average": 5.6,
            "overview": "A nerdy teen, Ryan Woodman is smitten with the popular and gorgeous Ashley Grant, who apparently has no interest in him. Meanwhile, dim star athlete Chris Campbell has his eye on Ryan's brainy and beautiful friend, Maggie Carter. The two agree to help each other in their romantic quests, but, as they come closer to their goals, both Ryan and Chris suspect that they might be pursuing the wrong girls.",
            "release_date": "2000-03-31"
        },
        {
            "popularity": 4.707,
            "id": 284374,
            "video": false,
            "vote_count": 11,
            "vote_average": 5,
            "title": "Love or Whatever",
            "release_date": "2012-10-23",
            "original_language": "en",
            "original_title": "Love or Whatever",
            "genre_ids": [
                35
            ],
            "backdrop_path": "/lKNpSuoLSwPr5P0yXgxCBn8SiSm.jpg",
            "adult": false,
            "overview": "Corey had it all - a successful career, bags of charm and, most of all, a bright future with his boyfriend. But, when his other half commits the ultimate betrayal and dumps him for a woman, he embarks upon a wild journey of self-discovery. Soon, he meets a potentially perfect new guy but first he needs to make some life-changing choices.",
            "poster_path": "/jPLQMtZ8JKDB34mwbvg2EaSfyNo.jpg"
        },
        {
            "popularity": 3.484,
            "vote_count": 4,
            "video": false,
            "poster_path": "/rLr0G8AQZb2cqtVr9SPlBOaQwbY.jpg",
            "id": 102304,
            "adult": false,
            "backdrop_path": null,
            "original_language": "en",
            "original_title": "Whatever",
            "genre_ids": [
                18
            ],
            "title": "Whatever",
            "vote_average": 7.4,
            "overview": "A New Jersey teen faces her impending adulthood, dreaming of a life as a successful New York artist. But when she gets caught up in the carefree sport of pre-AIDS sex and drugs, her future becomes less certain.",
            "release_date": "1998-07-10"
        },
        {
            "popularity": 4.966,
            "vote_count": 11,
            "video": false,
            "poster_path": "/iXYzdpQEdPnj1rzucvZyUOqFwzL.jpg",
            "id": 49922,
            "adult": false,
            "backdrop_path": null,
            "original_language": "en",
            "original_title": "Whatever Happened to Harold Smith?",
            "genre_ids": [
                35
            ],
            "title": "Whatever Happened to Harold Smith?",
            "vote_average": 6.5,
            "overview": "It's 1976, and Vinny is a confused teenager who can't decide whether he is a disco king or a proto punk rocker.",
            "release_date": "2000-03-10"
        },
        {
            "popularity": 4.938,
            "vote_count": 18,
            "video": false,
            "poster_path": "/hMtBWTGTv1aL9kIr9tMv1wVO8gF.jpg",
            "id": 17495,
            "adult": false,
            "backdrop_path": null,
            "original_language": "en",
            "original_title": "Whatever Lola wants",
            "genre_ids": [
                18
            ],
            "title": "Whatever Lola wants",
            "vote_average": 6.3,
            "overview": "A Brooklyn postal worker follows her Egyptian boyfriend to Cairo where she takes belly-dancing lessons from a legendary but disgraced Egyptian dancer.",
            "release_date": "2007-12-11"
        },
        {
            "popularity": 3.101,
            "id": 537244,
            "video": false,
            "vote_count": 0,
            "vote_average": 0,
            "title": "Down for Whatever",
            "release_date": "2018-07-22",
            "original_language": "en",
            "original_title": "Down for Whatever",
            "genre_ids": [
                28
            ],
            "backdrop_path": "/fbILSTqViAiKnaYqecINCRRZJ3Y.jpg",
            "adult": false,
            "overview": "A young and successful doctor is shocked to learn her two sisters are suspected of killing a cop.",
            "poster_path": "/lFdpUUpfeMGOamFfl2JCwKktD54.jpg"
        },
        {
            "popularity": 2.208,
            "id": 36824,
            "video": false,
            "vote_count": 1,
            "vote_average": 8,
            "title": "Carl Barron: Whatever Comes Next",
            "release_date": "2005-08-22",
            "original_language": "en",
            "original_title": "Carl Barron: Whatever Comes Next",
            "genre_ids": [
                35
            ],
            "backdrop_path": null,
            "adult": false,
            "overview": "Features over an hour of his award-winning show plus special behind-the-scenes footage taking you on a journey you will never forget",
            "poster_path": "/6oBXk941hssbN9Vo89Rg0cOquSE.jpg"
        },
        {
            "popularity": 3.182,
            "vote_count": 0,
            "video": false,
            "poster_path": "/eeWhJYMJH3LX7MMpoSzAxXADrHV.jpg",
            "id": 667870,
            "adult": false,
            "backdrop_path": "/hJ2JJez6r9DBLrrOPNVdnKpS2b4.jpg",
            "original_language": "en",
            "original_title": "Connor McDavid: Whatever it Takes",
            "genre_ids": [
                99
            ],
            "title": "Connor McDavid: Whatever it Takes",
            "vote_average": 0,
            "overview": "Connor McDavid: Whatever it Takes follows the most physically and emotionally challenging offseason of Connor McDavid's career. This documentary is the remarkable comeback story of one of the NHL's best players after what could have been a career ending or altering injury. A world-class medical team led by Mark Lindsay, supervised McDavid's gruelling rehabilitation program which combined advanced sport science and imaging techniques with Connor's sheer will to overcome, allowing him to return to the Edmonton Oilers lineup for the 2019-20 home opener. McDavid not only came back, but is faster and stronger than ever and having the best season of his young career. McDavid enters the 2020 All-Star break leading the NHL in scoring, and has his Edmonton Oilers in the hunt for 1st Place in the Pacific Division.",
            "release_date": "2020-01-24"
        },
        {
            "popularity": 1.772,
            "id": 112449,
            "video": false,
            "vote_count": 8,
            "vote_average": 5.1,
            "title": "Whatever We Do",
            "release_date": "2003-01-16",
            "original_language": "en",
            "original_title": "Whatever We Do",
            "genre_ids": [
                35,
                18
            ],
            "backdrop_path": null,
            "adult": false,
            "overview": "Twenty margaritas and 10 shots of tequila, with a few ounces of debauchery, bring four friends closer to the truth than they have been for years.",
            "poster_path": null
        },
        {
            "popularity": 1.692,
            "id": 329223,
            "video": false,
            "vote_count": 4,
            "vote_average": 5.5,
            "title": "Whatever She Wants",
            "release_date": "2010-02-02",
            "original_language": "en",
            "original_title": "Whatever She Wants",
            "genre_ids": [],
            "backdrop_path": null,
            "adult": false,
            "overview": "Whatever She Wants is the story about one woman s determination to rediscover who she really is... Vivian Wolf (Vivica A. Fox) has suffered one heartbreak too many and has no room left for unfulfilling relationships. Now she has come up with the solution to every woman s problem, a private club called Whatever She Wants where men have to qualify to get in.",
            "poster_path": "/eWRVjbODtEGiC24RgCBePR8VPJe.jpg"
        },
        {
            "popularity": 1.68,
            "vote_count": 5,
            "video": false,
            "poster_path": "/3zf4SOseLbonuWJndrxiHOXAkbm.jpg",
            "id": 498068,
            "adult": false,
            "backdrop_path": "/anJFct7NNAEAR9qEIHfWZNtem9Z.jpg",
            "original_language": "de",
            "original_title": "Whatever Happens Next",
            "genre_ids": [
                35,
                18
            ],
            "title": "Whatever Happens Next",
            "vote_average": 7,
            "overview": "A road movie about a dropout who leaves himself completely to chance. A parable about freedom, self-determination and the poetry of an undefined life.",
            "release_date": "2018-02-21"
        },
        {
            "popularity": 2.353,
            "vote_count": 0,
            "video": false,
            "poster_path": null,
            "id": 422500,
            "adult": false,
            "backdrop_path": null,
            "original_language": "en",
            "original_title": "Barry Crimmins: Whatever Threatens You",
            "genre_ids": [
                35
            ],
            "title": "Barry Crimmins: Whatever Threatens You",
            "vote_average": 0,
            "overview": "Following from Bobcat Goldthwait's revelatory documentary, Call Me Lucky, Barry Crimmins' friend Louis CK produced and directed Whatever Threatens You, his first comedy special, at the Lawrence Arts Center in Lawrence, Kansas in June 4th, 2016. It was then subsequently made available for download on Louis CK's website on October 23rd, 2016.  The hour-long special is a sharp set of the biting social and political commentary that has defined Crimmins' career, touching upon his beginnings in helping to found the Boston comedy scene, right up to his thoughts on the upcoming 2016 US election.",
            "release_date": "2016-10-23"
        },
        {
            "popularity": 0.851,
            "vote_count": 4,
            "video": false,
            "poster_path": "/mcDJk0VcMIxJDdUX27d6vqgPl5L.jpg",
            "id": 425215,
            "adult": false,
            "backdrop_path": "/kLbiS5yMvuAc26c3axFYG2day9h.jpg",
            "original_language": "de",
            "original_title": "Whatever Happens",
            "genre_ids": [
                35,
                18,
                10749
            ],
            "title": "Whatever Happens",
            "vote_average": 7.3,
            "overview": "Hannah and Julian have separated and meet for a last time to empty out their shared apartment. But nothing goes as planned, and their last night together becomes a turbulent roller-coaster ride.",
            "release_date": "2017-11-30"
        },
        {
            "popularity": 1.141,
            "id": 288217,
            "video": false,
            "vote_count": 1,
            "vote_average": 6,
            "title": "Whatever Love Means",
            "release_date": "2005-12-05",
            "original_language": "en",
            "original_title": "Whatever Love Means",
            "genre_ids": [],
            "backdrop_path": null,
            "adult": false,
            "overview": "Strap in for a rollercoaster ride through the emotional worlds of love and royalty in an original WE Channel movie exploring the enduring, 30-year romance shared between Prince Charles and Camilla Parker-Bowles. Decades before the fairy tale wedding of Prince Charles and Lady Diana, the young prince and his longtime sweetheart found their growing love tragically clipped by the many demands of royalty and the sometimes rough waters of romance. Though he had previously exchanged vows with the glamorous Diana, Prince Charles never truly forgot about Parker-Bowles, and in this film Anglophiles and royalty scholars alike will finally learn the truth behind one of the highest profile romances in modern history.",
            "poster_path": null
        },
        {
            "popularity": 0.6,
            "id": 336773,
            "video": false,
            "vote_count": 1,
            "vote_average": 8.5,
            "title": "Whatever Comes Next",
            "release_date": "2014-11-23",
            "original_language": "en",
            "original_title": "Whatever Comes Next",
            "genre_ids": [
                99,
                36
            ],
            "backdrop_path": null,
            "adult": false,
            "overview": "Whatever Comes Next is a documentary about the curious and dynamic life of Annemarie Mahler-Ettinger.\r The film portrays the painter and scholar, Annemarie Mahler. Born in Vienna in 1926, Mahler fled by herself as a twelve-year child to the United States and has since 1955 has lived in Bloomington, IN, and in the summers in Woods Hole, MA.  The documentary portrays the artist's outer and inner lives, which bridge two centuries and two continents.",
            "poster_path": null
        },
        {
            "popularity": 0.935,
            "id": 154801,
            "video": false,
            "vote_count": 0,
            "vote_average": 0,
            "title": "Whatever It Takes",
            "release_date": "2009-03-14",
            "original_language": "en",
            "original_title": "Whatever It Takes",
            "genre_ids": [
                99
            ],
            "backdrop_path": null,
            "adult": false,
            "overview": "WHATEVER IT TAKES chronicles the struggles and triumphs of the very first year of the Bronx Center for Science &amp; Mathematics, an innovative public high school set in NYC’s South Bronx. This deeply emotional, character-driven documentary focuses on Edward Tom, the school’s dynamic rookie principal, and Sharifea Baskerville, a talented but troubled ninth-grade girl.  Grittily, realistic, yet ultimately triumphant, WHATEVER IT TAKES paints a compelling picture of cutting-edge ideas and dedicated individuals, united in their vision to restore hope to a broken community.",
            "poster_path": null
        },
        {
            "popularity": 0.763,
            "vote_count": 2,
            "video": false,
            "poster_path": "/t7XtJNrSQyM1iGfMsThfJffVlKE.jpg",
            "id": 121837,
            "adult": false,
            "backdrop_path": null,
            "original_language": "en",
            "original_title": "Whatever it Takes",
            "genre_ids": [
                28,
                35,
                53
            ],
            "title": "Whatever it Takes",
            "vote_average": 6.5,
            "overview": "Two Los Angeles cops go undercover to investigate the distribution of steroids to wrestlers and body builders.",
            "release_date": "1998-01-01"
        },
        {
            "popularity": 0.6,
            "id": 248073,
            "video": false,
            "vote_count": 0,
            "vote_average": 0,
            "title": "WhatEver Will Be",
            "release_date": "2013-05-26",
            "original_language": "en",
            "original_title": "WhatEver Will Be",
            "genre_ids": [
                99
            ],
            "backdrop_path": null,
            "adult": false,
            "overview": "Two transgender women, a filmmaker and the struggle to change.",
            "poster_path": null
        },
        {
            "popularity": 0.6,
            "vote_count": 0,
            "video": false,
            "poster_path": null,
            "id": 709672,
            "adult": false,
            "backdrop_path": null,
            "original_language": "en",
            "original_title": "Whatever It Takes",
            "genre_ids": [
                18
            ],
            "title": "Whatever It Takes",
            "vote_average": 0,
            "overview": "Aspiring director Chuckie wants to make a film along the lines of the legendary C.S. Calhoun and his sexploitation films of thirty years ago. He begins filming topless women and travels to California where he can find more available talent. He finally locates Calhoun and they discuss the genre, but now Chuck must find a distributor for his movie.",
            "release_date": "1993-11-21"
        }
    ]
}
