{
    "page": 1,
    "total_results": 236,
    "total_pages": 12,
    "results": [
        {
            "popularity": 19.813,
            "vote_count": 119,
            "video": false,
            "poster_path": "/6XWQK6mmDbKyrtzr4wJxa6rBfuM.jpg",
            "id": 13355,
            "adult": false,
            "backdrop_path": "/rmOW6dJnWPAIJq0a4vTdIrm4hGa.jpg",
            "original_language": "en",
            "original_title": "Scooby-Doo! Pirates Ahoy!",
            "genre_ids": [
                12,
                16,
                35,
                14,
                9648,
                10751
            ],
            "title": "Scooby-Doo! Pirates Ahoy!",
            "vote_average": 7.1,
            "overview": "Ghost pirates attack the cruise ship that Scooby and the gang are vacationing on.",
            "release_date": "2006-01-01"
        },
        {
            "popularity": 52.179,
            "vote_count": 11461,
            "video": false,
            "poster_path": "/AdRQGfT05z6L9gIpUpkh4McMmpm.jpg",
            "id": 58,
            "adult": false,
            "backdrop_path": "/vv5a8u6e40kyH0Hp6HuamAgzRai.jpg",
            "original_language": "en",
            "original_title": "Pirates of the Caribbean: Dead Man's Chest",
            "genre_ids": [
                28,
                12,
                14
            ],
            "title": "Pirates of the Caribbean: Dead Man's Chest",
            "vote_average": 7.3,
            "overview": "Captain Jack Sparrow works his way out of a blood debt with the ghostly Davey Jones to avoid eternal damnation.",
            "release_date": "2006-06-20"
        },
        {
            "popularity": 47.459,
            "vote_count": 10236,
            "video": false,
            "poster_path": "/jGWpG4YhpQwVmjyHEGkxEkeRf0S.jpg",
            "id": 285,
            "adult": false,
            "backdrop_path": "/kobscH4qOsYQNTZnkrF5zkPCsvX.jpg",
            "original_language": "en",
            "original_title": "Pirates of the Caribbean: At World's End",
            "genre_ids": [
                28,
                12,
                14
            ],
            "title": "Pirates of the Caribbean: At World's End",
            "vote_average": 7.2,
            "overview": "Captain Barbossa, long believed to be dead, has come back to life and is headed to the edge of the Earth with Will Turner and Elizabeth Swann. But nothing is quite as it seems.",
            "release_date": "2007-05-19"
        },
        {
            "popularity": 8.231,
            "vote_count": 126,
            "video": false,
            "poster_path": "/z5hwmjITS8HF3l8jJTv4VrqFfMm.jpg",
            "id": 11483,
            "adult": false,
            "backdrop_path": "/jBfHr0cZqHXbORe7g6tDKB16MhL.jpg",
            "original_language": "en",
            "original_title": "Pirates",
            "genre_ids": [
                12,
                35
            ],
            "title": "Pirates",
            "vote_average": 6.3,
            "overview": "Captain Red runs a hardy pirate ship with the able assistance of Frog, a dashing young French sailor. One day Capt. Red is captured and taken aboard a Spanish galleon, but thanks to his inventiveness, he raises the crew to mutiny, takes over the ship, and kidnaps the niece of the governor of Maracaibo. The question is, can he keep this pace up?",
            "release_date": "1986-05-08"
        },
        {
            "popularity": 46.892,
            "id": 1865,
            "video": false,
            "vote_count": 10286,
            "vote_average": 6.5,
            "title": "Pirates of the Caribbean: On Stranger Tides",
            "release_date": "2011-05-14",
            "original_language": "en",
            "original_title": "Pirates of the Caribbean: On Stranger Tides",
            "genre_ids": [
                12,
                28,
                14
            ],
            "backdrop_path": "/bfTKq6mGHt2CzZlBU31JHF9bMog.jpg",
            "adult": false,
            "overview": "Captain Jack Sparrow crosses paths with a woman from his past, and he's not sure if it's love -- or if she's a ruthless con artist who's using him to find the fabled Fountain of Youth. When she forces him aboard the Queen Anne's Revenge, the ship of the formidable pirate Blackbeard, Jack finds himself on an unexpected adventure in which he doesn't know who to fear more: Blackbeard or the woman from his past.",
            "poster_path": "/9zxsSzXx2UO3yNoS4j97vs4uOhc.jpg"
        },
        {
            "popularity": 9.7,
            "vote_count": 94,
            "video": false,
            "poster_path": "/wepZqo4I20z8TklnEHRJhs2fErH.jpg",
            "id": 10179,
            "adult": false,
            "backdrop_path": "/zbUWi2j1VdjLDXWCHIBJIxV9lNu.jpg",
            "original_language": "en",
            "original_title": "The Ice Pirates",
            "genre_ids": [
                28,
                35,
                878
            ],
            "title": "The Ice Pirates",
            "vote_average": 5.6,
            "overview": "The time is the distant future, where by far the most precious commodity in the galaxy is water. The last surviving water planet was somehow removed to the unreachable centre of the galaxy at the end of the galactic trade wars. The galaxy is ruled by an evil emperor (John Carradine) presiding over a trade oligarchy that controls all mining and sale of ice from asteroids and comets.",
            "release_date": "1984-03-16"
        },
        {
            "popularity": 49.73,
            "vote_count": 8637,
            "video": false,
            "poster_path": "/xbpSDU3p7YUGlu9Mr6Egg2Vweto.jpg",
            "id": 166426,
            "adult": false,
            "backdrop_path": "/7C921eWK06n12c1miRXnYoEu5Yv.jpg",
            "original_language": "en",
            "original_title": "Pirates of the Caribbean: Dead Men Tell No Tales",
            "genre_ids": [
                28,
                12,
                35,
                14
            ],
            "title": "Pirates of the Caribbean: Dead Men Tell No Tales",
            "vote_average": 6.6,
            "overview": "Thrust into an all-new adventure, a down-on-his-luck Capt. Jack Sparrow feels the winds of ill-fortune blowing even more strongly when deadly ghost sailors led by his old nemesis, the evil Capt. Salazar, escape from the Devil's Triangle. Jack's only hope of survival lies in seeking out the legendary Trident of Poseidon, but to find it, he must forge an uneasy alliance with a brilliant and beautiful astronomer and a headstrong young man in the British navy.",
            "release_date": "2017-05-23"
        },
        {
            "popularity": 51.281,
            "vote_count": 15043,
            "video": false,
            "poster_path": "/z8onk7LV9Mmw6zKz4hT6pzzvmvl.jpg",
            "id": 22,
            "adult": false,
            "backdrop_path": "/7yxjg8pvp3JuqguUaJPYTma6Z7t.jpg",
            "original_language": "en",
            "original_title": "Pirates of the Caribbean: The Curse of the Black Pearl",
            "genre_ids": [
                28,
                12,
                14
            ],
            "title": "Pirates of the Caribbean: The Curse of the Black Pearl",
            "vote_average": 7.7,
            "overview": "Jack Sparrow, a freewheeling 18th-century pirate, quarrels with a rival pirate bent on pillaging Port Royal. When the governor's daughter is kidnapped, Sparrow decides to help the girl's love save her.",
            "release_date": "2003-07-09"
        },
        {
            "popularity": 11.823,
            "vote_count": 346,
            "video": false,
            "poster_path": "/t7uUOD2Ov2CM9PYYOEggL7hef15.jpg",
            "id": 3293,
            "adult": false,
            "backdrop_path": "/vKgsqmYHdNjtyhQIUjXW88IPeI.jpg",
            "original_language": "en",
            "original_title": "Pirates of Silicon Valley",
            "genre_ids": [
                18
            ],
            "title": "Pirates of Silicon Valley",
            "vote_average": 7,
            "overview": "The story about the men who made the world of technology what it is today, their struggles during college, the founding of their companies, and the ingenious actions they took to build up the global corporate empires of Apple Computer Inc. and Microsoft Corporation.",
            "release_date": "1999-05-10"
        },
        {
            "popularity": 12.641,
            "vote_count": 116,
            "video": false,
            "poster_path": "/a8dlDPwo9mnorurL6ukIpyHZZd7.jpg",
            "id": 394537,
            "adult": false,
            "backdrop_path": "/iUH1dWoIR1eoE6sEzwhH49T0sE0.jpg",
            "original_language": "en",
            "original_title": "The Pirates of Somalia",
            "genre_ids": [
                18
            ],
            "title": "The Pirates of Somalia",
            "vote_average": 6.9,
            "overview": "After an inspiring chance encounter with his idol, rookie journalist Jay Bahadur uproots his life and moves to Somalia looking for the story of a lifetime. Hooking up with a local fixer, he attempts to get embedded with the local Somali pirates, only to quickly find himself in over his head.",
            "release_date": "2017-12-08"
        },
        {
            "popularity": 5.764,
            "vote_count": 7,
            "video": false,
            "poster_path": "/76QkzXUf4U2I8TPzImxQcEgclmq.jpg",
            "id": 79716,
            "adult": false,
            "backdrop_path": "/9TwjuVpF2WaZAML8nZOOX92yNfm.jpg",
            "original_language": "en",
            "original_title": "Pirates of Tortuga",
            "genre_ids": [
                28,
                12
            ],
            "title": "Pirates of Tortuga",
            "vote_average": 5.9,
            "overview": "After a lengthy voyage, Capt. Bart (Ken Scott) docks his ship in a London harbor and is given a new mission by British Admiralty: capture the notorious Henry Morgan (Robert Stephens), a pirate who has been wreaking havoc throughout the Caribbean. After recruiting some former shipmates for his crew, Capt. Bart sets sail in search of the infamous buccaneer, and is joined by a beautiful female stowaway in the process.",
            "release_date": "1961-10-02"
        },
        {
            "popularity": 15.128,
            "vote_count": 723,
            "video": false,
            "poster_path": "/gxQWAhT2Hpsid1aBQQmQyYP6brw.jpg",
            "id": 72197,
            "adult": false,
            "backdrop_path": "/lG6GSDuTmOizhfcrpyeB0On7yPy.jpg",
            "original_language": "en",
            "original_title": "The Pirates! In an Adventure with Scientists!",
            "genre_ids": [
                12,
                16,
                35,
                10751
            ],
            "title": "The Pirates! In an Adventure with Scientists!",
            "vote_average": 6.4,
            "overview": "The luxuriantly bearded Pirate Captain is a boundlessly enthusiastic, if somewhat less-than-successful, terror of the High Seas. With a rag-tag crew at his side, and seemingly blind to the impossible odds stacked against him, the Captain has one dream: to beat his bitter rivals Black Bellamy and Cutlass Liz to the much coveted Pirate of the Year Award. It’s a quest that takes our heroes from the shores of exotic Blood Island to the foggy streets of Victorian London. Along the way they battle a diabolical queen and team up with a haplessly smitten young scientist, but never lose sight of what a pirate loves best: adventure!",
            "release_date": "2012-03-12"
        },
        {
            "popularity": 3.901,
            "id": 316272,
            "video": true,
            "vote_count": 11,
            "vote_average": 9.2,
            "title": "Scooby-Doo! and the Pirates",
            "release_date": "2011-08-30",
            "original_language": "en",
            "original_title": "Scooby-Doo! and the Pirates",
            "genre_ids": [
                16,
                10751,
                35,
                9648
            ],
            "backdrop_path": "/2XrMSk8gQHqkzbFabHHqOEgtM6l.jpg",
            "adult": false,
            "overview": "Splash into action with seafaring sleuths Scooby-Doo and the Mystery, Inc. gang as they collide with a mystery ship and try to uncover clues from a vanished crew in Hassle in the Castle! Shaggy and Scooby-Doo are then captured by Redbeard the Pirate in Go Away Ghost Ship. Zoinks! If the case isn’t solved soon, somebody’s going to walk the plank! And when Scooby and friends get lost in a swamp, they meet up with the Harlem Globetrotters and Redbeard the Pirate – again! – for a swashbuckling adventure worth a treasure chest full of Scooby Snax!",
            "poster_path": "/pdeplt7IgAba6bMyCWGDHQqWBYl.jpg"
        },
        {
            "popularity": 4.679,
            "vote_count": 16,
            "video": false,
            "poster_path": "/f2bvgBjzvTXU3qA1EWFhcNRb6Xv.jpg",
            "id": 15716,
            "adult": false,
            "backdrop_path": "/1qpFwnmDP75TjVZD5Iu1RGXZMaV.jpg",
            "original_language": "en",
            "original_title": "The Pirates of Penzance",
            "genre_ids": [
                35,
                10402,
                10749
            ],
            "title": "The Pirates of Penzance",
            "vote_average": 5.8,
            "overview": "In spite of being apprenticed to a Pirate King as a child, Frederic has led a very sheltered life. So when he arrives in Cornwall with his boisterous shipmates, there are a few surprises in store for him!",
            "release_date": "1983-02-18"
        },
        {
            "popularity": 3.363,
            "vote_count": 21,
            "video": false,
            "poster_path": "/vHNMZpxyHoRw7DFsSNgFRqrEeI5.jpg",
            "id": 68757,
            "adult": false,
            "backdrop_path": "/dKbOK5DPQDWfiKLteO2U08PPcky.jpg",
            "original_language": "fr",
            "original_title": "La Ville des pirates",
            "genre_ids": [
                18,
                14,
                27
            ],
            "title": "City of Pirates",
            "vote_average": 7.2,
            "overview": "A surreal odyssey in which a melancholic maidservant crosses paths with a homicidal little boy, travels to a tiny island of pirates and encounters a man with multiple personalities.",
            "release_date": "1984-02-22"
        },
        {
            "popularity": 19.873,
            "vote_count": 27,
            "video": false,
            "poster_path": "/O7ncXwZ9bowJGLAfIhe9ZaRZdi.jpg",
            "id": 230652,
            "adult": false,
            "backdrop_path": null,
            "original_language": "en",
            "original_title": "Pirates of the Caribbean: Tales of the Code – Wedlocked",
            "genre_ids": [
                28,
                12,
                14
            ],
            "title": "Pirates of the Caribbean: Tales of the Code – Wedlocked",
            "vote_average": 6.7,
            "overview": "Wenches Scarlett and Giselle fix each other up for their wedding, in which they would each marry their groom. Upon realizing that both their grooms were the same man, Jack Sparrow, the two wenches found themselves in an auction led by the Auctioneer. This short film serves as a prequel to The Curse of the Black Pearl, and explains just why Jack Sparrow's boat the Jolly Mon was seen sinking at the beginning of the whole story; why the wenches were so upset with him; and how Cotton lost his tongue.",
            "release_date": "2011-10-18"
        },
        {
            "popularity": 2.786,
            "id": 28778,
            "video": false,
            "vote_count": 8,
            "vote_average": 5.6,
            "title": "The Devil-Ship Pirates",
            "release_date": "1964-05-15",
            "original_language": "en",
            "original_title": "The Devil-Ship Pirates",
            "genre_ids": [
                12,
                53,
                28
            ],
            "backdrop_path": "/aQjOovwvSD79cLlCAFJeQ6RUnjM.jpg",
            "adult": false,
            "overview": "A pirate ship, fighting in 1588 on the side of the Spanish Armada, suffers damage and must put into a village on the British coast for repairs. The village is small and isolated and the Spanish convince the villagers that the English fleet has been defeated and that they, the Spanish, are now their masters. This results in the villagers' sullen cooperation, but rumors and unrest begin to spread and soon the Spanish pirates find themselves facing a revolt.",
            "poster_path": "/dnxoGkrxfKARTUfw6HktzKeFdWR.jpg"
        },
        {
            "popularity": 1.851,
            "vote_count": 0,
            "video": false,
            "poster_path": null,
            "id": 132493,
            "adult": false,
            "backdrop_path": null,
            "original_language": "en",
            "original_title": "Pirates",
            "genre_ids": [
                99
            ],
            "title": "Pirates",
            "vote_average": 0,
            "overview": "Discovery examines the history of \"Golden age of Piracy.\" The program takes a detailed look at the harsh lives of pirates, their tactics, motivations and why they would choose such a life. The geopolitical forces that lead to the proliferation of pirates and their final demise are explained.",
            "release_date": "1998-04-06"
        },
        {
            "popularity": 3.843,
            "id": 50717,
            "video": false,
            "vote_count": 27,
            "vote_average": 6.4,
            "title": "Davy Crockett and the River Pirates",
            "release_date": "1956-07-18",
            "original_language": "en",
            "original_title": "Davy Crockett and the River Pirates",
            "genre_ids": [
                28,
                12,
                10751
            ],
            "backdrop_path": "/sTPXyadD38ri1rG4c1r4lewtKFp.jpg",
            "adult": false,
            "overview": "Davy Crockett and his sidekick Georgie compete against boastful Mike Fink (\"King of the River\") in a boat race to New Orleans. Later, Davy and Georgie, allied with Fink, battle a group of river pirates trying to pass themselves off as Native Americans.",
            "poster_path": "/obMOXFtwiySiaQhWZZgE3UWsygB.jpg"
        },
        {
            "popularity": 3.143,
            "id": 25043,
            "video": false,
            "vote_count": 7,
            "vote_average": 2.4,
            "title": "Pirates of Treasure Island",
            "release_date": "2006-06-27",
            "original_language": "en",
            "original_title": "Pirates of Treasure Island",
            "genre_ids": [
                12,
                28,
                35,
                53
            ],
            "backdrop_path": null,
            "adult": false,
            "overview": "Starting as a prequel to the novel \"Treasure Island\", we see the infamous pirate treasure buried by Billy Bones and Long John Silver",
            "poster_path": "/70oZMpJvu6IIvqgIILFFGc525Zg.jpg"
        }
    ]
}
