{
    "page": 2,
    "total_results": 7860,
    "total_pages": 393,
    "results": [
        {
            "popularity": 34.835,
            "id": 13,
            "video": false,
            "vote_count": 18978,
            "vote_average": 8.5,
            "title": "Forrest Gump",
            "release_date": "1994-07-06",
            "original_language": "en",
            "original_title": "Forrest Gump",
            "genre_ids": [
                35,
                18,
                10749
            ],
            "backdrop_path": "/7c9UVPPiTPltouxRVY6N9uugaVA.jpg",
            "adult": false,
            "overview": "A man with a low IQ has accomplished great things in his life and been present during significant historic events—in each case, far exceeding what anyone imagined he could do. But despite all he has achieved, his one true love eludes him.",
            "poster_path": "/clolk7rB5lAjs41SD0Vt6IXYLMm.jpg"
        },
        {
            "popularity": 24.342,
            "id": 311,
            "video": false,
            "vote_count": 3211,
            "vote_average": 8.4,
            "title": "Once Upon a Time in America",
            "release_date": "1984-05-23",
            "original_language": "en",
            "original_title": "Once Upon a Time in America",
            "genre_ids": [
                18,
                80
            ],
            "backdrop_path": "/z1s7ASlypXYGeMLoJ2Np4CpWdzd.jpg",
            "adult": false,
            "overview": "A former Prohibition-era Jewish gangster returns to the Lower East Side of Manhattan over thirty years later, where he once again must confront the ghosts and regrets of his old life.",
            "poster_path": "/hBDHr3YihnuL46aeyEMhTchXkZP.jpg"
        },
        {
            "popularity": 33.599,
            "id": 522924,
            "video": false,
            "vote_count": 628,
            "vote_average": 8.4,
            "title": "The Art of Racing in the Rain",
            "release_date": "2019-08-08",
            "original_language": "en",
            "original_title": "The Art of Racing in the Rain",
            "genre_ids": [
                35,
                18,
                10749
            ],
            "backdrop_path": "/6esNUoXh4xQvucB7o7e3TCfjI65.jpg",
            "adult": false,
            "overview": "A family dog—with a near-human soul and a philosopher's mind—evaluates his life through the lessons learned by his human owner, a race-car driver.",
            "poster_path": "/mi5VN4ww0JZgRFJIaPxxTGKjUg7.jpg"
        },
        {
            "popularity": 30.147,
            "vote_count": 7989,
            "video": false,
            "poster_path": "/1MWsO3QQd6vB7ENMeXOGil7i0Al.jpg",
            "id": 769,
            "adult": false,
            "backdrop_path": "/gILte6Zd7m1YneIr6MVhh30S9pr.jpg",
            "original_language": "en",
            "original_title": "GoodFellas",
            "genre_ids": [
                80,
                18
            ],
            "title": "GoodFellas",
            "vote_average": 8.4,
            "overview": "The true story of Henry Hill, a half-Irish, half-Sicilian Brooklyn kid who is adopted by neighbourhood gangsters at an early age and climbs the ranks of a Mafia family under the guidance of Jimmy Conway.",
            "release_date": "1990-09-12"
        },
        {
            "popularity": 66.9,
            "vote_count": 472,
            "video": false,
            "poster_path": "/8mRgpubxHqnqvENK4Bei30xMDvy.jpg",
            "id": 537061,
            "adult": false,
            "backdrop_path": "/re3ZvlKJg04iLpLRf1xTKHS2wLU.jpg",
            "original_language": "en",
            "original_title": "Steven Universe: The Movie",
            "genre_ids": [
                28,
                12,
                16,
                35,
                18,
                14,
                10402,
                10751
            ],
            "title": "Steven Universe: The Movie",
            "vote_average": 8.4,
            "overview": "Two years after the events of \"Change Your Mind\", Steven (now 16 years old) and his friends are ready to enjoy the rest of their lives peacefully. However, all of that changes when a new sinister Gem arrives, armed with a giant drill that saps the life force of all living things on Earth. In their biggest challenge ever, the Crystal Gems must work together to save all organic life on Earth within 48 hours.",
            "release_date": "2019-09-02"
        },
        {
            "popularity": 19.305,
            "vote_count": 2537,
            "video": false,
            "poster_path": "/8SRUfRUi6x4O68n0VCbDNRa6iGL.jpg",
            "id": 11216,
            "adult": false,
            "backdrop_path": "/zoVeIgKzGJzpdG6Gwnr7iOYfIMU.jpg",
            "original_language": "it",
            "original_title": "Nuovo Cinema Paradiso",
            "genre_ids": [
                18,
                10749
            ],
            "title": "Cinema Paradiso",
            "vote_average": 8.4,
            "overview": "A filmmaker recalls his childhood, when he fell in love with the movies at his village's theater and formed a deep friendship with the theater's projectionist.",
            "release_date": "1988-11-17"
        },
        {
            "popularity": 31.937,
            "vote_count": 5372,
            "video": false,
            "poster_path": "/eWivEg4ugIMAd7d4uWI37b17Cgj.jpg",
            "id": 429,
            "adult": false,
            "backdrop_path": "/x4biAVdPVCghBlsVIzB6NmbghIz.jpg",
            "original_language": "it",
            "original_title": "Il buono, il brutto, il cattivo",
            "genre_ids": [
                37
            ],
            "title": "The Good, the Bad and the Ugly",
            "vote_average": 8.4,
            "overview": "While the Civil War rages between the Union and the Confederacy, three men – a quiet loner, a ruthless hit man and a Mexican bandit – comb the American Southwest in search of a strongbox containing $200,000 in stolen gold.",
            "release_date": "1966-12-23"
        },
        {
            "popularity": 9.258,
            "vote_count": 662,
            "video": false,
            "poster_path": "/m8eFedsS7vQCZCS8WGp5n1bVD0q.jpg",
            "id": 40096,
            "adult": false,
            "backdrop_path": "/alQqTpmEkxSLgajfEYTsTH6nAKB.jpg",
            "original_language": "pt",
            "original_title": "O Auto da Compadecida",
            "genre_ids": [
                12,
                35
            ],
            "title": "A Dog's Will",
            "vote_average": 8.4,
            "overview": "The lively João Grilo and the sly Chicó are poor guys living in the hinterland who cheat a bunch of people in a small Northeast Brazil town. But when they die, they have to be judged by Christ, the Devil and the Virgin Mary, before they are admitted to paradise. The edited theatrical version of O Auto da Compadecida.",
            "release_date": "2000-09-15"
        },
        {
            "popularity": 20.302,
            "vote_count": 2048,
            "video": false,
            "poster_path": "/1wCRVLGI7SoTOoDRzWlbt2dMDuy.jpg",
            "id": 346,
            "adult": false,
            "backdrop_path": "/sJNNMCc6B7KZIY3LH3JMYJJNH5j.jpg",
            "original_language": "ja",
            "original_title": "七人の侍",
            "genre_ids": [
                28,
                18
            ],
            "title": "Seven Samurai",
            "vote_average": 8.4,
            "overview": "A samurai answers a village's request for protection after he falls on hard times. The town needs protection from bandits, so the samurai gathers six others to help him teach the people how to defend themselves, and the villagers provide the soldiers with food. A giant battle occurs when 40 bandits attack the village.",
            "release_date": "1954-04-26"
        },
        {
            "popularity": 36.573,
            "vote_count": 6672,
            "video": false,
            "poster_path": "/nR4LD4ZJg2n6LZQpcOrLFdMq0cD.jpg",
            "id": 539,
            "adult": false,
            "backdrop_path": "/kZGaVeXSkkvrpMYvD97sxHj291k.jpg",
            "original_language": "en",
            "original_title": "Psycho",
            "genre_ids": [
                18,
                27,
                53
            ],
            "title": "Psycho",
            "vote_average": 8.4,
            "overview": "When larcenous real estate clerk Marion Crane goes on the lam with a wad of cash and hopes of starting a new life, she ends up at the notorious Bates Motel, where manager Norman Bates cares for his housebound mother.",
            "release_date": "1960-06-22"
        },
        {
            "popularity": 230.699,
            "vote_count": 626,
            "video": false,
            "poster_path": "/4VlXER3FImHeFuUjBShFamhIp9M.jpg",
            "id": 664767,
            "adult": false,
            "backdrop_path": "/9xeEGUZjgiKlI69jwIOi0hjKUIk.jpg",
            "original_language": "en",
            "original_title": "Mortal Kombat Legends: Scorpion's Revenge",
            "genre_ids": [
                28,
                12,
                16,
                14
            ],
            "title": "Mortal Kombat Legends: Scorpion's Revenge",
            "vote_average": 8.4,
            "overview": "After the vicious slaughter of his family by stone-cold mercenary Sub-Zero, Hanzo Hasashi is exiled to the torturous Netherrealm. There, in exchange for his servitude to the sinister Quan Chi, he’s given a chance to avenge his family – and is resurrected as Scorpion, a lost soul bent on revenge. Back on Earthrealm, Lord Raiden gathers a team of elite warriors – Shaolin monk Liu Kang, Special Forces officer Sonya Blade and action star Johnny Cage – an unlikely band of heroes with one chance to save humanity. To do this, they must defeat Shang Tsung’s horde of Outworld gladiators and reign over the Mortal Kombat tournament.",
            "release_date": "2020-04-12"
        },
        {
            "popularity": 34.408,
            "vote_count": 20187,
            "video": false,
            "poster_path": "/pB8BM7pdSp6B6Ih7QZ4DrQ3PmJK.jpg",
            "id": 550,
            "adult": false,
            "backdrop_path": "/rr7E0NoGKxvbkb89eR1GwfoYjpA.jpg",
            "original_language": "en",
            "original_title": "Fight Club",
            "genre_ids": [
                18
            ],
            "title": "Fight Club",
            "vote_average": 8.4,
            "overview": "A ticking-time-bomb insomniac and a slippery soap salesman channel primal male aggression into a shocking new form of therapy. Their concept catches on, with underground \"fight clubs\" forming in every town, until an eccentric gets in the way and ignites an out-of-control spiral toward oblivion.",
            "release_date": "1999-10-15"
        },
        {
            "popularity": 96.605,
            "vote_count": 769,
            "video": false,
            "poster_path": "/c01Y4suApJ1Wic2xLmaq1QYcfoZ.jpg",
            "id": 618344,
            "adult": false,
            "backdrop_path": "/sQkRiQo3nLrQYMXZodDjNUJKHZV.jpg",
            "original_language": "en",
            "original_title": "Justice League Dark: Apokolips War",
            "genre_ids": [
                28,
                12,
                16,
                14,
                878
            ],
            "title": "Justice League Dark: Apokolips War",
            "vote_average": 8.4,
            "overview": "Earth is decimated after intergalactic tyrant Darkseid has devastated the Justice League in a poorly executed war by the DC Super Heroes. Now the remaining bastions of good – the Justice League, Teen Titans, Suicide Squad and assorted others – must regroup, strategize and take the war to Darkseid in order to save the planet and its surviving inhabitants.",
            "release_date": "2020-05-05"
        },
        {
            "popularity": 28.786,
            "id": 510,
            "video": false,
            "vote_count": 7079,
            "vote_average": 8.4,
            "title": "One Flew Over the Cuckoo's Nest",
            "release_date": "1975-11-18",
            "original_language": "en",
            "original_title": "One Flew Over the Cuckoo's Nest",
            "genre_ids": [
                18
            ],
            "backdrop_path": "/hb3FLfyoFcm47l2KDyBtKP7x3eF.jpg",
            "adult": false,
            "overview": "While serving time for insanity at a state mental hospital, implacable rabble-rouser, Randle Patrick McMurphy, inspires his fellow patients to rebel against the authoritarian rule of head nurse, Mildred Ratched.",
            "poster_path": "/biejlC9yx8W66KHrD5tp9YiSqmV.jpg"
        },
        {
            "popularity": 24.538,
            "id": 598,
            "video": false,
            "vote_count": 4549,
            "vote_average": 8.4,
            "title": "City of God",
            "release_date": "2002-02-05",
            "original_language": "pt",
            "original_title": "Cidade de Deus",
            "genre_ids": [
                18,
                80
            ],
            "backdrop_path": "/rr0vFvjbAU7zaLjSRtUAxavH2bv.jpg",
            "adult": false,
            "overview": "Cidade de Deus is a shantytown that started during the 1960s and became one of Rio de Janeiro’s most dangerous places in the beginning of the 1980s. To tell the story of this place, the movie describes the life of various characters, all seen by the point of view of the narrator, Buscapé. Buscapé was raised in a very violent environment. Despite the feeling that all odds were against him, he finds out that life can be seen with other eyes...",
            "poster_path": "/k7eYdWvhYQyRQoU2TB2A2Xu2TfD.jpg"
        },
        {
            "popularity": 122.622,
            "vote_count": 8075,
            "video": false,
            "poster_path": "/iiZZdoQBEYBv6id8su7ImL0oCbD.jpg",
            "id": 324857,
            "adult": false,
            "backdrop_path": "/7d6EY00g1c39SGZOoCJ5Py9nNth.jpg",
            "original_language": "en",
            "original_title": "Spider-Man: Into the Spider-Verse",
            "genre_ids": [
                28,
                12,
                16,
                35,
                878
            ],
            "title": "Spider-Man: Into the Spider-Verse",
            "vote_average": 8.4,
            "overview": "Miles Morales is juggling his life between being a high school student and being a spider-man. When Wilson \"Kingpin\" Fisk uses a super collider, others from across the Spider-Verse are transported to this dimension.",
            "release_date": "2018-12-06"
        },
        {
            "popularity": 44.525,
            "vote_count": 5647,
            "video": false,
            "poster_path": "/TkTPELv4kC3u1lkloush8skOjE.jpg",
            "id": 4935,
            "adult": false,
            "backdrop_path": "/iuFbU5jiNh8DAxLBGifZCvv3KmB.jpg",
            "original_language": "ja",
            "original_title": "ハウルの動く城",
            "genre_ids": [
                12,
                16,
                14
            ],
            "title": "Howl's Moving Castle",
            "vote_average": 8.4,
            "overview": "When Sophie, a shy young woman, is cursed with an old body by a spiteful witch, her only chance of breaking the spell lies with a self-indulgent yet insecure young wizard and his companions in his legged, walking castle.",
            "release_date": "2004-11-19"
        },
        {
            "popularity": 6.29,
            "vote_count": 367,
            "video": false,
            "poster_path": "/sfeQTIRkJjWt8IPDSBcPqkrcaas.jpg",
            "id": 640344,
            "adult": false,
            "backdrop_path": "/wooZWiC4NWH0ahCSUOogEmVejHo.jpg",
            "original_language": "it",
            "original_title": "Me contro Te: Il film - La vendetta del Signor S",
            "genre_ids": [
                35,
                10751
            ],
            "title": "Me contro Te: Il film - La vendetta del Signor S",
            "vote_average": 8.4,
            "overview": "Luì and Sofì fight the terrible Signor S once again, this time he will be revealed to the public!!!",
            "release_date": "2020-01-17"
        },
        {
            "popularity": 0.6,
            "vote_count": 3056,
            "video": false,
            "poster_path": "/wcNkHDbyc290hcWk7KXbBZUuXpq.jpg",
            "id": 12477,
            "adult": false,
            "backdrop_path": "/dlC0ed9Ugh3FzydnkBtV5lRXUu4.jpg",
            "original_language": "ja",
            "original_title": "火垂るの墓",
            "genre_ids": [
                16,
                18,
                10752
            ],
            "title": "Grave of the Fireflies",
            "vote_average": 8.4,
            "overview": "In the final months of World War II, 14-year-old Seita and his sister Setsuko are orphaned when their mother is killed during an air raid in Kobe, Japan. After a falling out with their aunt, they move into an abandoned bomb shelter. With no surviving relatives and their emergency rations depleted, Seita and Setsuko struggle to survive.",
            "release_date": "1988-04-16"
        },
        {
            "popularity": 17.016,
            "id": 599,
            "video": false,
            "vote_count": 1490,
            "vote_average": 8.4,
            "title": "Sunset Boulevard",
            "release_date": "1950-08-10",
            "original_language": "en",
            "original_title": "Sunset Boulevard",
            "genre_ids": [
                18
            ],
            "backdrop_path": "/p47ihFj4A7EpBjmPHdTj4ipyq1S.jpg",
            "adult": false,
            "overview": "A hack screenwriter writes a screenplay for a former silent film star who has faded into Hollywood obscurity.",
            "poster_path": "/zt8aQ6ksqK6p1AopC5zVTDS9pKT.jpg"
        }
    ]
}
